{
  // Server authentication info
  "servers": [
    {
      "host": "91.135.16.9",
      "username": "raivis",
      "password": "12345",
      // or pem file (ssh based authentication)
      // WARNING: Keys protected by a passphrase are not supported
      //"pem": "~/.ssh/id_rsa"
      // Also, for non-standard ssh port use this
      //"sshOptions": { "port" : 49154 },
      // server specific environment variables
      "env": {}
    }
  ],

  // Install MongoDB on the server. Does not destroy the local MongoDB on future setups
  "setupMongo": false,

  // Application name (no spaces).
  "appName": "gps",

  // Location of app (local directory). This can reference '~' as the users home directory.
  // i.e., "app": "~/Meteor/my-app",
  // This is the same as the line below.
  "app": "c:/gps-react",

  // Configure environment
  // ROOT_URL must be set to your correct domain (https or http)
  "env": {
    "PORT": 80,
    "ROOT_URL": "http://91.135.16.9",
    "MONGO_URL": "mongodb://gps:C6E=ejEd@91.135.16.9:27017/gps"
  },

  // Meteor Up checks if the app comes online just after the deployment.
  // Before mup checks that, it will wait for the number of seconds configured below.
  "deployCheckWaitTime": 120,

  // show a progress bar while uploading. 
  // Make it false when you deploy using a CI box.
  "enableUploadProgressBar": true
}